sim/logs/comparator_tb.log
Testbench for comparator
Time | a b (bin) | equal | less | greater
VCD info: dumpfile ../../sim/waveforms/comparator_tb.vcd opened for output.
Monitor:    0 | a=10010010 b=01000000 -> equal=0 , less=0 , greater=1
Monitor: 1000 | a=00000100 b=00110001 -> equal=0 , less=1 , greater=0
Monitor: 2000 | a=10000110 b=11000110 -> equal=0 , less=1 , greater=0
Monitor: 3000 | a=00110010 b=00001001 -> equal=0 , less=0 , greater=1
Monitor: 4000 | a=10000000 b=10000110 -> equal=0 , less=1 , greater=0
Monitor: 5000 | a=10111011 b=10011110 -> equal=0 , less=0 , greater=1
Monitor: 6000 | a=11110110 b=11000110 -> equal=0 , less=0 , greater=1
Monitor: 7000 | a=11111100 b=01100011 -> equal=0 , less=0 , greater=1
Monitor: 8000 | a=01100010 b=01010101 -> equal=0 , less=0 , greater=1
Monitor: 9000 | a=11110010 b=00111011 -> equal=0 , less=0 , greater=1
Monitor: 10000 | a=00001001 b=11000111 -> equal=0 , less=1 , greater=0
Monitor: 11000 | a=11111001 b=01100111 -> equal=0 , less=0 , greater=1
Monitor: 12000 | a=01110100 b=01100010 -> equal=0 , less=0 , greater=1
Monitor: 13000 | a=10101110 b=01011110 -> equal=0 , less=0 , greater=1
Monitor: 14000 | a=00010110 b=00110010 -> equal=0 , less=1 , greater=0
Monitor: 15000 | a=00110001 b=10000101 -> equal=0 , less=1 , greater=0
Monitor: 16000 | a=01000000 b=10010000 -> equal=0 , less=1 , greater=0
Monitor: 17000 | a=11010101 b=01001110 -> equal=0 , less=0 , greater=1
Monitor: 18000 | a=01001011 b=00001001 -> equal=0 , less=0 , greater=1
Monitor: 19000 | a=00000110 b=00101001 -> equal=0 , less=1 , greater=0
Testbench completed
../../tb/comparator_tb.sv:72: $finish called at 20000 (1ps)
